ExMove – ExMove user guide
…
                          ) %>% 
  purrr::set_names(nm = basename(.)) %>% # remove path prefix
  purrr::map_dfr(read_delim, # use read_delim function
                 .id = "filename", # use filename as ID column
                 col_types = cols(.default = "c"), # as character by default
                 col_names = colnames, # use colnames object made above
                 skip = skiplines, # how many lines to skip
                 delim = user_delim, # define delimiter
                 trim_ws = user_trim_ws) %>% # trim characters or not
  mutate("{ID_type}" := str_sub(string = filename, # extract ID from filename 
                                start = IDstart, end = IDend), # ID position
         .after = filename) # move the new ID column after filename column
df_combined

# A tibble: 6,650 × 12
   filename     ID    Date  Time  Latitude Longitude Altitude Speed Course Type 
   <chr>        <chr> <chr> <chr> <chr>    <chr>     <chr>    <chr> <chr>  <chr>
 1 GV37501_201… GV37… 24/0… 5.06  -7.2618… 72.376091 56.18    3636  93     -2   
 2 GV37501_201… GV37… 24/0… 05:2… -7.2618… 72.376091 56.18    3636  93     0    
 3 GV37501_201… GV37… 24/0… 05:2… -7.2617… 72.376221 64.91    5112  32     0    
 4 GV37501_201… GV37… 24/0… 05:5… -7.2616… 72.376137 -15.77   936   291    0    
 5 GV37501_201… GV37… 24/0… 06:2… -7.2616… 72.376335 30.91    1080  124    0    
 6 GV37501_201… GV37… 24/0… 06:2… -7.2616… 72.376289 26.8     0     280    0    
 7 GV37501_201… GV37… 24/0… 06:3… -7.2615… 72.376198 21.77    0     183    0    
 8 GV37501_201… GV37… 24/0… 06:3… -7.2615… 72.376205 30.78    2844  268    0    
 9 GV37501_201… GV37… 24/0… 06:4… -7.2616… 72.376259 27.1     1476  44     0    
10 GV37501_201… GV37… 24/0… 06:4… -7.2614… 72.375732 -35.04   0     260    0    
# ℹ 6,640 more rows
# ℹ 2 more variables: Distance <chr>, Essential <chr>
…
